<svg id="svg2" height="64" viewBox="0 0 64 64" width="64" version="1.1" xmlns="http://www.w3.org/2000/svg" xmlns:svg="http://www.w3.org/2000/svg">
  <style type="text/css" id="current-color-scheme">
        .ColorScheme-Text {
            color:#ffffff;
        }
  </style>
  <g id="steam-deck-logo" transform="matrix(-1,0,0,1,64,0)">
    <rect style="fill:#000000;fill-rule:evenodd;opacity:0.000001" id="rect1101" width="64" height="64" x="0" y="0" />
    <path id="path42220" d="M 32,4 V 14 A 18,18 0 0 1 50,32 18,18 0 0 1 32,50 V 60 A 28,28 0 0 0 60,32 28,28 0 0 0 32,4 Z" style="fill:currentColor;fill-rule:evenodd" class="ColorScheme-Text" />
    <circle id="path43518" cx="32" cy="32" r="14" style="fill:#1a9fff;fill-rule:evenodd" />
  </g>
</svg>
